   ____             __ _                       _   _               ____
  / ___|___  _ __  / _(_) __ _ _   _ _ __ __ _| |_(_) ___  _ __   / ___|  ___ _ ____   _____ _ __
 | |   / _ \| '_ \| |_| |/ _` | | | | '__/ _` | __| |/ _ \| '_ \  \___ \ / _ \ '__\ \ / / _ \ '__|
 | |__| (_) | | | |  _| | (_| | |_| | | | (_| | |_| | (_) | | | |  ___) |  __/ |   \ V /  __/ |
  \____\___/|_| |_|_| |_|\__, |\__,_|_|  \__,_|\__|_|\___/|_| |_| |____/ \___|_|    \_/ \___|_|
                         |___/